<?xml version="1.0" encoding="utf-8"?>
<svg viewBox="0 0 500 500" xmlns="http://www.w3.org/2000/svg" xmlns:bx="https://boxy-svg.com">
  <defs>
    <linearGradient id="gradient-1" bx:pinned="true">
      <stop offset="0.39" style="stop-color: rgb(197, 10, 182);"/>
      <stop offset="0.774" style="stop-color: rgb(227, 171, 226);"/>
    </linearGradient>
  </defs>
  <rect x="36.572" width="426.857" height="451.912" style="stroke-miterlimit: 14; stroke-dasharray: 0; stroke-dashoffset: 7px; stroke-linecap: round; stroke-width: 15.667; stroke: rgb(123, 30, 163); fill: rgb(255, 255, 255);" rx="213.428" ry="213.428" y="24.044"/>
  <g transform="matrix(1.259028, 0, 0, 1.259028, -64.441597, -64.845901)">
    <path d="M 325.022 208.38 L 325.022 327.083 C 324.795 331.842 322.908 337.339 319.744 340.968 C 316.808 344.336 312.443 347.303 308.124 349.189 C 304.143 350.832 299.857 352.153 295.875 352.969 C 291.92 353.749 287.86 354.182 284.339 354.215 C 280.774 354.207 276.673 353.772 272.723 352.965 C 268.74 352.15 264.487 350.81 260.536 349.205 C 256.191 347.332 251.876 344.273 248.868 340.956 C 245.862 337.181 243.599 331.811 243.599 327.083 C 243.599 322.354 245.863 316.983 248.868 313.209 C 251.875 309.893 256.191 306.833 260.537 304.961 C 264.488 303.356 268.739 302.015 272.723 301.2 C 276.673 300.393 280.761 299.959 284.323 299.951 C 292.417 300.021 293.503 300.545 297.877 301.559 L 297.877 263.154 L 230.047 284.091 L 230.047 354.228 C 229.82 358.989 227.776 364.352 224.767 368.115 C 221.757 371.416 217.497 374.52 213.15 376.333 C 209.174 377.991 204.879 379.298 200.898 380.116 C 196.946 380.894 192.888 381.327 189.364 381.36 C 185.799 381.353 181.701 380.904 177.749 380.111 C 173.766 379.279 169.511 377.955 165.561 376.35 C 161.215 374.477 156.899 371.417 153.891 368.102 C 150.885 364.326 148.624 358.957 148.624 354.228 C 148.624 349.501 150.886 344.13 153.892 340.354 C 156.901 337.038 161.215 333.979 165.561 332.106 C 169.512 330.501 173.767 329.178 177.749 328.346 C 181.701 327.553 185.786 327.105 189.346 327.096 C 197.445 327.165 198.528 327.689 202.901 328.704 L 202.901 235.526 C 203.075 232.269 204.412 228.249 206.251 225.493 C 208.325 222.967 211.839 220.481 214.893 219.303 L 302.92 192.22 C 304.386 191.792 306.451 191.45 308.038 191.45 C 312.151 191.45 316.952 193.69 320.038 196.409 C 321.437 197.894 322.982 200.067 323.74 201.904 C 324.497 203.739 324.483 205.821 324.483 205.821 C 324.679 206.482 312.678 212.098 313.416 213.203 C 313.416 213.203 311.688 206.876 310.445 206 C 309.571 204.757 309.567 205.016 308.038 205.016 C 307.373 205.016 307.456 204.946 307.214 205.088 L 218.883 232.269 C 217.677 232.501 217.745 232.51 217.133 233.593 C 216.287 234.445 216.293 234.415 216.467 235.526 L 216.467 338.017 L 216.467 348.648 L 206.91 344.207 C 201.474 341.681 196.078 340.594 189.335 340.662 C 186.551 340.628 183.811 340.939 180.466 341.638 C 177.147 342.298 174.104 343.253 170.703 344.66 C 167.696 345.799 165.934 347.026 164.138 349.246 C 162.342 351.004 162.19 351.929 162.19 354.228 C 162.19 356.527 162.342 357.452 164.138 359.212 C 165.934 361.43 167.695 362.657 170.703 363.796 C 174.104 365.203 177.147 366.159 180.465 366.819 C 183.811 367.518 186.522 367.829 189.305 367.794 C 192.131 367.801 194.885 367.5 198.23 366.814 C 201.547 366.166 204.552 365.221 207.928 363.813 C 210.933 362.56 212.751 361.404 214.543 359.199 C 216.336 357.454 216.708 356.549 216.481 354.228 L 216.481 279.086 L 216.481 274.081 L 221.263 272.605 L 302.659 247.481 L 311.443 244.77 L 311.443 253.962 L 311.443 310.871 L 311.443 321.501 L 301.886 317.061 C 296.45 314.535 291.053 313.449 284.311 313.517 C 281.527 313.482 278.789 313.807 275.441 314.492 C 272.127 315.169 269.081 316.108 265.678 317.515 C 262.672 318.653 260.909 319.881 259.114 322.099 C 257.317 323.861 257.165 324.784 257.165 327.083 C 257.165 329.381 257.318 330.306 259.114 332.066 C 260.908 334.284 262.671 335.512 265.678 336.651 C 269.08 338.058 272.126 338.996 275.441 339.673 C 278.789 340.358 281.497 340.683 284.282 340.649 C 287.108 340.654 289.86 340.355 293.205 339.669 C 296.521 339.021 299.533 338.09 302.903 336.668 C 305.939 335.488 307.652 334.194 309.518 332.054 C 311.156 330.175 311.683 329.404 311.456 327.083 L 311.456 208.38 Z" style="fill: none;"/>
    <path d="M 267.61 259.712 C 268.897 259.712 270.142 260.963 271.345 263.464 C 272.548 265.954 273.15 268.325 273.15 270.576 C 273.15 272.506 272.869 274.436 272.31 276.366 C 271.751 278.296 271.225 279.743 270.737 280.708 L 269.772 282.388 C 261.897 297.672 250.2 311.748 234.677 324.614 C 219.153 337.48 203.596 343.913 188.002 343.913 C 179.794 343.913 173.759 340.977 169.9 335.103 C 166.04 329.23 164.11 321.714 164.11 312.552 C 164.11 296.469 168.733 280.024 177.977 263.214 C 187.233 246.404 198.938 231.085 213.09 217.254 C 206.979 216.61 201.266 214.282 195.953 210.267 C 190.652 206.241 188.002 201.332 188.002 195.542 C 188.002 186.702 195.239 177.941 209.713 169.256 C 224.175 160.572 242.105 156.229 263.5 156.229 C 270.255 156.229 278.82 157.074 289.197 158.767 C 299.561 160.446 307.561 161.286 313.195 161.286 C 322.202 161.286 328.635 159.839 332.495 156.944 C 333.138 156.789 333.704 156.712 334.192 156.712 C 334.991 156.712 335.389 157.033 335.389 157.677 C 335.389 158.32 335.068 159.201 334.424 160.321 C 331.208 165.468 326.866 169.649 321.398 172.866 C 315.929 176.082 309.902 177.691 303.314 177.691 C 296.225 177.691 285.807 175.845 272.06 172.151 C 258.313 168.447 247.663 166.594 240.109 166.594 C 231.58 166.594 223.455 169.006 215.735 173.831 C 208.015 178.656 204.156 185.249 204.156 193.612 C 204.156 197.15 205.121 200.612 207.05 203.994 C 208.98 207.366 210.91 209.856 212.84 211.464 L 215.735 213.876 L 216.217 214.359 C 235.039 196.513 251.926 185.905 266.878 182.533 C 267.687 182.367 268.652 182.283 269.772 182.283 C 271.381 182.283 272.185 182.765 272.185 183.73 C 272.185 185.017 270.982 186.143 268.575 187.108 C 264.072 188.872 257.639 193.451 249.276 200.849 C 240.913 208.247 232.062 217.379 222.722 228.243 C 213.407 239.096 205.33 252.04 198.491 267.074 C 191.652 282.108 188.234 296.625 188.234 310.622 C 188.234 324.93 193.143 332.083 202.958 332.083 C 210.035 332.083 216.986 329.796 223.812 325.221 C 230.651 320.634 236.683 314.643 241.914 307.245 C 247.144 299.847 251.689 292.365 255.548 284.801 C 259.408 277.247 262.625 269.611 265.198 261.892 C 265.675 260.439 266.479 259.712 267.61 259.712 Z" style="fill: rgb(124, 30, 163); white-space: pre; stroke-width: 1.787;"/>
  </g>
</svg>